id,name,model_id:id,group_id:id,perm_read,perm_write,perm_create,perm_unlink
access_efarina_jurusan,efarina.jurusan,efarina.model_efarina_jurusan,,1,1,1,0
access_efarina_asrama,efarina.asrama,efarina.model_efarina_asrama,,1,1,1,0
access_efarina_guru,efarina.guru,efarina.model_efarina_guru,,1,1,1,0
access_efarina_siswa,efarina.siswa,efarina.model_efarina_siswa,,1,1,1,0
access_efarina_siswa_kewajiban,efarina.siswa.kewajiban,efarina.model_efarina_siswa_kewajiban,,1,1,1,0
access_efarina_biaya,efarina.biaya,efarina.model_efarina_biaya,,1,1,1,0
access_efarina_tingkatan,efarina.tingkatan,efarina.model_efarina_tingkatan,,1,1,1,0
access_efarina_tingkatan_kewajiban,efarina.tingkatan.kewajiban,efarina.model_efarina_tingkatan_kewajiban,,1,1,1,0
access_efarina_kelas,efarina.kelas,efarina.model_efarina_kelas,,1,1,1,0
access_efarina_kelas_kewajiban,efarina.kelas.kewajiban,efarina.model_efarina_kelas_kewajiban,,1,1,1,0
access_efarina_semester,efarina.semester,efarina.model_efarina_semester,,1,1,1,0
access_efarina_semester_bulan,efarina.semester.bulan,efarina.model_efarina_semester_bulan,,1,1,1,0
access_efarina_aset,efarina.aset,efarina.model_efarina_aset,,1,1,1,0
access_efarina_order,efarina.order,efarina.model_efarina_order,,1,1,1,0
access_efarina_jenispendapatan,efarina.jenispendapatan,efarina.model_efarina_jenispendapatan,,1,1,1,0
access_efarina_account,efarina.account,efarina.model_efarina_account,,1,1,1,0
access_efarina_jenispengeluaran,efarina.jenispengeluaran,efarina.model_efarina_jenispengeluaran,,1,1,1,0

access_efarina_jurusan_delete,efarina.jurusan.delete,efarina.model_efarina_jurusan,efarina.group_efarina_delete_permission,1,1,1,1
access_efarina_asrama_delete,efarina.asrama.delete,efarina.model_efarina_asrama,efarina.group_efarina_delete_permission,1,1,1,1
access_efarina_guru_delete,efarina.guru.delete,efarina.model_efarina_guru,efarina.group_efarina_delete_permission,1,1,1,1
access_efarina_siswa_delete,efarina.siswa.delete,efarina.model_efarina_siswa,efarina.group_efarina_delete_permission,1,1,1,1
access_efarina_siswa_kewajiban_delete,efarina.siswa.kewajiban.delete,efarina.model_efarina_siswa_kewajiban,efarina.group_efarina_delete_permission,1,1,1,1
access_efarina_biaya_delete,efarina.biaya.delete,efarina.model_efarina_biaya,efarina.group_efarina_delete_permission,1,1,1,1
access_efarina_tingkatan_delete,efarina.tingkatan.delete,efarina.model_efarina_tingkatan,efarina.group_efarina_delete_permission,1,1,1,1
access_efarina_tingkatan_kewajiban_delete,efarina.tingkatan.kewajiban.delete,efarina.model_efarina_tingkatan_kewajiban,efarina.group_efarina_delete_permission,1,1,1,1
access_efarina_kelas_delete,efarina.kelas.delete,efarina.model_efarina_kelas,efarina.group_efarina_delete_permission,1,1,1,1
access_efarina_kelas_kewajiban_delete,efarina.kelas.kewajiban.delete,efarina.model_efarina_kelas_kewajiban,efarina.group_efarina_delete_permission,1,1,1,1
access_efarina_semester_delete,efarina.semester.delete,efarina.model_efarina_semester,efarina.group_efarina_delete_permission,1,1,1,1
access_efarina_semester_bulan_delete,efarina.semester.bulan.delete,efarina.model_efarina_semester_bulan,efarina.group_efarina_delete_permission,1,1,1,1
access_efarina_aset_delete,efarina.aset.delete,efarina.model_efarina_aset,efarina.group_efarina_delete_permission,1,1,1,1
access_efarina_order_delete,efarina.order.delete,efarina.model_efarina_order,efarina.group_efarina_delete_permission,1,1,1,1
access_efarina_jenispendapatan_delete,efarina.jenispendapatan.delete,efarina.model_efarina_jenispendapatan,efarina.group_efarina_delete_permission,1,1,1,1
access_efarina_account_delete,efarina.account.delete,efarina.model_efarina_account,efarina.group_efarina_delete_permission,1,1,1,1
access_efarina_jenispengeluaran_delete,efarina.jenispengeluaran.delete,efarina.model_efarina_jenispengeluaran,efarina.group_efarina_delete_permission,1,1,1,1

access_efarina_laporan_orderday,efarina.laporan.orderday,efarina.model_efarina_laporan_orderday,,1,1,1,1
access_efarina_laporan_ordermonth,efarina.laporan.ordermonth,efarina.model_efarina_laporan_ordermonth,,1,1,1,1
access_efarina_laporan_resume,efarina.laporan.resume,efarina.model_efarina_laporan_resume,,1,1,1,1
access_efarina_laporan_piutangkelas,efarina.laporan.piutangkelas,efarina.model_efarina_laporan_piutangkelas,,1,1,1,1
access_efarina_laporan_piutangbulanan,efarina.laporan.piutangbulanan,efarina.model_efarina_laporan_piutangbulanan,,1,1,1,1
access_efarina_laporan_penagihan,efarina.laporan.penagihan,efarina.model_efarina_laporan_penagihan,,1,1,1,1
access_efarina_laporan_informasisiswa,efarina.laporan.informasisiswa,efarina.model_efarina_laporan_informasisiswa,,1,1,1,1
access_efarina_laporan_penagihansiswa,efarina.laporan.penagihansiswa,efarina.model_efarina_laporan_penagihansiswa,,1,1,1,1

access_wizard_update_biaya_kewajiban,wizard_update_biaya_kewajiban,efarina.model_wizard_update_biaya_kewajiban,,1,1,1,1